digraph "DataStructure/SmartFixedArray" {
  compound=true
  node [ fontsize="10", fontname="Helvetica"];
  edge [ labelfontsize="10", labelfontname="Helvetica"];
  subgraph clusterdir_61f8caed08096df072032ac640f6feca {
    graph [ bgcolor="#ddddee", pencolor="black", label="DataStructure" fontname="Helvetica", fontsize="10", URL="dir_61f8caed08096df072032ac640f6feca.html"]
  dir_ef468b6e1a24a7dc26695229282bd1ed [shape=box, label="SmartFixedArray", style="filled", fillcolor="#eeeeff", pencolor="black", URL="dir_ef468b6e1a24a7dc26695229282bd1ed.html"];
  }
  dir_d403198d2aa38de87971f2789d60a3dd [shape=box label="Exceptions" URL="dir_d403198d2aa38de87971f2789d60a3dd.html"];
  dir_606de1e47da08b0d16e497ed74042ebe [shape=box label="CuTest" URL="dir_606de1e47da08b0d16e497ed74042ebe.html"];
  dir_b05a5fa85f84bfc9013183c9d87f9a36 [shape=box label="Utilities" URL="dir_b05a5fa85f84bfc9013183c9d87f9a36.html"];
  dir_a43cec759ea38d43c8f2ec0558a8e928 [shape=box label="Interfaces" URL="dir_a43cec759ea38d43c8f2ec0558a8e928.html"];
  dir_ef468b6e1a24a7dc26695229282bd1ed->dir_d403198d2aa38de87971f2789d60a3dd [headlabel="10", labeldistance=1.5 headhref="dir_000005_000007.html"];
  dir_ef468b6e1a24a7dc26695229282bd1ed->dir_606de1e47da08b0d16e497ed74042ebe [headlabel="1", labeldistance=1.5 headhref="dir_000005_000000.html"];
  dir_ef468b6e1a24a7dc26695229282bd1ed->dir_b05a5fa85f84bfc9013183c9d87f9a36 [headlabel="4", labeldistance=1.5 headhref="dir_000005_000012.html"];
  dir_ef468b6e1a24a7dc26695229282bd1ed->dir_a43cec759ea38d43c8f2ec0558a8e928 [headlabel="1", labeldistance=1.5 headhref="dir_000005_000004.html"];
  dir_606de1e47da08b0d16e497ed74042ebe->dir_b05a5fa85f84bfc9013183c9d87f9a36 [headlabel="2", labeldistance=1.5 headhref="dir_000000_000012.html"];
}
